stm32f1xx_ll_utils.c:471:17:UTILS_GetPLLOutputFrequency	0	static
stm32f1xx_ll_utils.c:495:20:UTILS_PLL_IsBusy	0	static
stm32f1xx_ll_utils.c:166:6:LL_Init1msTick	0	static
stm32f1xx_ll_utils.c:182:6:LL_mDelay	8	static
stm32f1xx_ll_utils.c:240:6:LL_SetSystemCoreClock	0	static
stm32f1xx_ll_utils.c:255:13:LL_SetFlashLatency	0	static
stm32f1xx_ll_utils.c:535:20:UTILS_EnablePLLAndSwitchSystem	24	static
stm32f1xx_ll_utils.c:334:13:LL_PLL_ConfigSystemClock_HSI	16	static
stm32f1xx_ll_utils.c:399:13:LL_PLL_ConfigSystemClock_HSE	24	static
